<?xml version="1.0" encoding="utf-8"?>
<!-- Generator: Adobe Illustrator 21.1.0, SVG Export Plug-In . SVG Version: 6.00 Build 0)  -->
<svg version="1.1" id="レイヤー_1" xmlns="http://www.w3.org/2000/svg" xmlns:xlink="http://www.w3.org/1999/xlink" x="0px"
	 y="0px" viewBox="0 0 60 60" style="enable-background:new 0 0 60 60;" xml:space="preserve">
<style type="text/css">
	.st0{fill:#231815;}
</style>
<g>
	<path class="st0" d="M46.4,3.8c2.7,0,4.9,0.9,6.8,2.8c1.9,1.9,2.8,4.2,2.8,6.8v32.1c0,2.7-0.9,4.9-2.8,6.8s-4.2,2.8-6.8,2.8h-6.3
		V35.3h6.7l1-7.8h-7.7v-5c0-1.2,0.3-2.2,0.8-2.8c0.5-0.6,1.5-0.9,3.1-0.9l4.1,0v-6.9c-1.4-0.2-3.4-0.3-6-0.3c-3,0-5.5,0.9-7.3,2.7
		C32.9,16,32,18.5,32,21.8v5.7h-6.7v7.8H32v19.9H14.2c-2.7,0-4.9-0.9-6.8-2.8s-2.8-4.2-2.8-6.8V13.4c0-2.7,0.9-4.9,2.8-6.8
		c1.9-1.9,4.2-2.8,6.8-2.8H46.4z"/>
</g>
</svg>
